{
  "tiemposDeResidencia":[
    {
      "id":1,
      "tiempo":"Menos de 1 año"
    },
    {
      "id":2,
      "tiempo":"1 año - 5 años"
    },
    {
      "id":3,
      "tiempo":"6 años - 10 años"
    },
    {
      "id":4,
      "tiempo":"11 años - 15 años"
    },
    {
      "id":5,
      "tiempo":"16 años - 20 años"
    },
    {
      "id":6,
      "tiempo":"21 años - 25 años"
    },
    {
      "id":7,
      "tiempo":"26 años - 30 años"
    },
    {
      "id":8,
      "tiempo":"31 años - 35 años"
    },
    {
      "id":9,
      "tiempo":"36 años - 40 años"
    },
    {
      "id":10,
      "tiempo":"41 años - 45 años"
    },
    {
      "id":11,
      "tiempo":"Más de 45 años"
    }
  ]
}