{
  "tiposDePregunta":[
    {"id":1,"tipo":"TIPO_1_Abierta","descripion":"Preguntas de campo abierto"},
    {
      "id":2,
      "tipo":"TIPO_2_Dicotomica_SINO",
      "descripcion":"Preguntas con única opción de respuesta SI y NO",
      "opciones":[
        {"id":1,"opcion":"SI","color":"#BF008000"},
        {"id":2,"opcion":"NO","color":"#BFFF0000"}
      ]
    },
    {
      "id":3,
      "tipo":"TIPO_3_EscalaEvaluacion3",
      "descripcion":"Preguntas que tienen como opciones de respuesta Buena, Insuficiente, Deficiente",
      "opciones":[
        {"id":3,"opcion":"Buena","color":"#BF008000"},
        {"id":4,"opcion":"Insuficiente","color":"#BFFFD700"},
        {"id":5,"opcion":"Deficiente","color":"#BFFF0000"}
      ]
    },
    {
      "id":4,
      "tipo":"TIPO_4_ActorVigilancia",
      "descripcion":"Preguntas cuyas opciones de respuesta estan relacionadas con actores que presenta vigilancia",
      "opciones":[
        {"id":6,"opcion":"Policía Nacional","color":"#BF008000"},
        {"id":7,"opcion":"Vigilante De Cuadra","color":"#BF1E90FF"},
        {"id":8,"opcion":"Vigilante De Cuadra Y Policía Nacional","color":"#BF483D8B"},
        {"id":9,"opcion":"Ninguno","color":"#BFFF0000"}
      ]
    },
    {
      "id":5,
      "tipo":"TIPO_5_MotivacionesDeLlamada",
      "descripcion":"Pregunta cuyas opciones de respuesta estan asociadas a los motivos por los cuales un ciudadano llamaria a la policia",
      "opciones":[
        {"id":10,"opcion":"Cuando estén Robando","color":"#BFF08080"},
        {"id":11,"opcion":"Cuando se presentan Riñas o Peleas","color":"#BF7B68EE"},
        {"id":12,"opcion":"Violencia Intrafamiliar","color":"#BFFF00FF"},
        {"id":13,"opcion":"Accidentes","color":"#BFC71585"},
        {"id":14,"opcion":"Consumo de Drogas","color":"#BFFF4500"},
        {"id":15,"opcion":"Cuando estén matando a alguien","color":"#BFFF0000"},
        {"id":16,"opcion":"Presencia de sospechosos","color":"#BFDDA0DD"},
        {"id":17,"opcion":"Venta de Drogas","color":"#BF8B4513"}
      ]
    },
    {
      "id":6,
      "tipo":"TIPO_6_NecesidadPatrullaje",
      "descripcion":"Preguntas cuyas opciones de respuesta estan relacionadas a las necesidades de los ciudadanos frente al patrullaje de la policia",
      "opciones":[
        {"id":18,"opcion":"Que Vigile Con Más Rondas","color":"#BFF08080"},
        {"id":19,"opcion":"Más presencia","color":"#BF7B68EE"},
        {"id":20,"opcion":"Más frecuencia de patrullaje","color":"#BFFF00FF"},
        {"id":21,"opcion":"Más oportunidad y prontitud ante el llamado de un ciudadano","color":"#BFC71585"},
        {"id":22,"opcion":"Presencia en los sectores peligrosos","color":"#BFFF4500"},
        {"id":23,"opcion":"Labores Comunitarias","color":"#BFFF0000"},
        {"id":24,"opcion":"Control en parques, escenarios deportivos y zonas verdes","color":"#BFDDA0DD"},
        {"id":25,"opcion":"Efectividad en el control de sustencias","color":"#BF8B4513"}
      ]
    },
    {
      "id":7,
      "tipo":"TIPO_7_ServicioPrestaLaPolicia",
      "descripcion":"Pregunta que tiene como finalidad identificar que tipo de ideaciones tiene la ciudadania frente a la labor que debe realizar la policia",
      "opciones":[
        {"id":26,"opcion":"Vigilancia","color":"#BF008000"},
        {"id":27,"opcion":"Ayuda al Ciudadano","color":"#BFFFD700"},
        {"id":28,"opcion":"Control","color":"#BFFF0000"}
      ]
    },
    {"id":8,"tipo":"TIPO_8_ZonaPeligroGPS","descripion":"Preguntas de campo abierto con coordenadas GPS"}
  ]
}